Calculate Benjamini-Hochberg FDR Corrected Values — p_value_FDR • helpr
…
p4 <- withr::with_seed(101, c(runif(200), runif(25, 0.01, 0.1)))
p_value_FDR(p4)
#> # A tibble: 225 × 8
#>    p_value `penalty (k/m)` threshold p_hat   fdr   idx fdr_p alpha
#>  *   <dbl>           <dbl>     <dbl> <dbl> <dbl> <int> <dbl> <chr>
#>  1 0.00859         0.00444  0.000222 1     0.421   186 0.994 null 
#>  2 0.0102          0.00889  0.000444 1     0.421    85 0.827 null 
#>  3 0.0113          0.0133   0.000667 0.848 0.421   215 0.994 null 
#>  4 0.0136          0.0178   0.000889 0.767 0.421   220 0.999 null 
#>  5 0.0165          0.0222   0.00111  0.742 0.421   192 0.994 null 
#>  6 0.0183          0.0267   0.00133  0.687 0.421    90 0.827 null 
#>  7 0.0189          0.0311   0.00156  0.606 0.421   206 0.994 null 
#>  8 0.0191          0.0356   0.00178  0.537 0.421    67 0.747 null 
#>  9 0.0202          0.04     0.002    0.504 0.421    39 0.435 null 
#> 10 0.0233          0.0444   0.00222  0.525 0.421   102 0.907 null 
#> # ℹ 215 more rows
…
